<?xml version="1.0" encoding="utf-8"?>
<!-- Generator: Adobe Illustrator 16.0.4, SVG Export Plug-In . SVG Version: 6.00 Build 0)  -->
<!DOCTYPE svg PUBLIC "-//W3C//DTD SVG 1.1//EN" "http://www.w3.org/Graphics/SVG/1.1/DTD/svg11.dtd">
<svg version="1.1" id="Layer_1" xmlns="http://www.w3.org/2000/svg" xmlns:xlink="http://www.w3.org/1999/xlink" x="0px" y="0px"
	 width="150px" height="150px" viewBox="0 0 150 150" enable-background="new 0 0 150 150" xml:space="preserve">
<rect fill="#57C6E5" width="150" height="150"/>
<path fill="#FFFFFF" d="M95.797,74.875c-9.094,0-16.491-7.4-16.491-16.497c0-1.39,0.18-2.783,0.536-4.149
	c-1.895-0.578-3.875-0.871-5.898-0.871c-2.228,0-4.38,0.345-6.402,1.025c0.334,1.328,0.502,2.67,0.502,3.995
	c0,9.097-7.398,16.497-16.495,16.497s-16.497-7.4-16.497-16.497c0-9.092,7.4-16.49,16.497-16.49c6.728,0,12.808,4.145,15.302,10.371
	c2.197-0.777,4.638-1.186,7.094-1.186c2.287,0,4.511,0.349,6.616,1.037c2.528-6.137,8.584-10.222,15.237-10.222
	c9.098,0,16.499,7.398,16.499,16.49C112.296,67.475,104.895,74.875,95.797,74.875z M95.797,44.255
	c-7.787,0-14.121,6.335-14.121,14.123c0,7.792,6.334,14.13,14.121,14.13c7.791,0,14.129-6.338,14.129-14.13
	C109.926,50.59,103.588,44.255,95.797,44.255z M51.548,44.255c-7.788,0-14.126,6.335-14.126,14.123
	c0,7.792,6.338,14.13,14.126,14.13s14.124-6.338,14.124-14.13C65.672,50.59,59.336,44.255,51.548,44.255z"/>
<path fill="none" stroke="#FFFFFF" stroke-width="2" stroke-linecap="round" stroke-linejoin="round" stroke-miterlimit="10" d="
	M73.925,114.512c10.367-1.277,20.524-5.346,29.281-12.35c1.742-1.391,3.384-2.865,4.924-4.41"/>
<path fill="none" stroke="#FFFFFF" stroke-width="2" stroke-linecap="round" stroke-linejoin="round" stroke-miterlimit="10" d="
	M114.254,98.385c-1.001-1.412-2.153-2.707-3.461-3.873c-1.2-1.066-2.494-1.992-3.87-2.777"/>
</svg>
