<?xml version="1.0" encoding="utf-8"?>
<!-- Generator: Adobe Illustrator 15.1.0, SVG Export Plug-In . SVG Version: 6.00 Build 0)  -->
<!DOCTYPE svg PUBLIC "-//W3C//DTD SVG 1.1//EN" "http://www.w3.org/Graphics/SVG/1.1/DTD/svg11.dtd">
<svg version="1.1" id="Layer_1" xmlns="http://www.w3.org/2000/svg" xmlns:xlink="http://www.w3.org/1999/xlink" x="0px" y="0px"
	 width="30px" height="30px" viewBox="0 0 46 46" enable-background="new 0 0 46 46" xml:space="preserve">
<g>
	<path id="Facebook_7_" fill="none" stroke="#57C9E7" stroke-miterlimit="10" d="M19.939,13.751c0,0.771,0,4.208,0,4.208h-3.084
		v5.143h3.084v15.285h6.334V23.102h4.248c0,0,0.396-2.467,0.59-5.16c-0.551,0-4.816,0-4.816,0s0-2.995,0-3.518
		c0-0.527,0.692-1.232,1.373-1.232c0.682,0,2.117,0,3.449,0c0-0.704,0-3.123,0-5.358c-1.779,0-3.798,0-4.691,0
		C19.783,7.833,19.939,12.984,19.939,13.751z"/>
	<rect x="0.5" y="0.5" fill="none" stroke="none" stroke-miterlimit="10" width="45" height="45"/>
</g>
</svg>
