<?xml version="1.0" encoding="utf-8"?>
<!-- Generator: Adobe Illustrator 16.0.4, SVG Export Plug-In . SVG Version: 6.00 Build 0)  -->
<!DOCTYPE svg PUBLIC "-//W3C//DTD SVG 1.1//EN" "http://www.w3.org/Graphics/SVG/1.1/DTD/svg11.dtd">
<svg version="1.1" id="Layer_1" xmlns="http://www.w3.org/2000/svg" xmlns:xlink="http://www.w3.org/1999/xlink" x="0px" y="0px"
	 width="60px" height="60px" viewBox="0 0 60 60" enable-background="new 0 0 60 60" xml:space="preserve">
<g>
	<path fill="#ACAAAB" d="M38.924,45.943H21.073c-0.699,0-1.227-0.527-1.227-1.227v-19.08h4.867V39.65c0,0.802,0.627,1.43,1.428,1.43
		c0.802,0,1.43-0.628,1.43-1.43V25.637h4.861V39.65c0,0.802,0.628,1.43,1.43,1.43c0.803,0,1.432-0.628,1.432-1.43V25.637h4.859
		v19.08C40.152,45.416,39.624,45.943,38.924,45.943z M20.846,26.637v18.08c0,0.15,0.076,0.227,0.227,0.227h17.851
		c0.153,0,0.229-0.074,0.229-0.227v-18.08h-2.859V39.65c0,1.362-1.068,2.43-2.432,2.43c-1.362,0-2.43-1.067-2.43-2.43V26.637h-2.861
		V39.65c0,1.362-1.067,2.43-2.43,2.43c-1.361,0-2.428-1.067-2.428-2.43V26.637H20.846z M44.01,22.778H15.989v-0.5
		c0-2.405,1.955-4.362,4.357-4.362h3.39c0.249-2.168,2.097-3.858,4.332-3.858h3.862c2.234,0,4.082,1.69,4.331,3.858h3.39
		c2.403,0,4.359,1.957,4.359,4.362V22.778z M17.026,21.778h25.946c-0.242-1.618-1.64-2.862-3.322-2.862h-4.361v-0.5
		c0-1.852-1.507-3.358-3.359-3.358h-3.862c-1.853,0-3.36,1.506-3.36,3.358v0.5h-4.361C18.665,18.916,17.268,20.16,17.026,21.778z"/>
</g>
</svg>
