<?xml version="1.0" encoding="utf-8"?>
<!-- Generator: Adobe Illustrator 16.0.4, SVG Export Plug-In . SVG Version: 6.00 Build 0)  -->
<!DOCTYPE svg PUBLIC "-//W3C//DTD SVG 1.1//EN" "http://www.w3.org/Graphics/SVG/1.1/DTD/svg11.dtd">
<svg version="1.1" id="Layer_1" xmlns="http://www.w3.org/2000/svg" xmlns:xlink="http://www.w3.org/1999/xlink" x="0px" y="0px"
	 width="360px" height="60px" viewBox="0 0 360 60" enable-background="new 0 0 360 60" xml:space="preserve">
<path fill="#108C9E" d="M281.127,23.033c-3.541,0-6.58,2.176-7.859,5.26c-1.062-0.342-2.219-0.531-3.391-0.531
	c-1.266,0-2.512,0.219-3.639,0.615c-1.26-3.127-4.318-5.344-7.892-5.344c-4.691,0-8.509,3.816-8.509,8.506
	c0,4.691,3.817,8.508,8.509,8.508c4.69,0,8.507-3.816,8.507-8.508c0-0.705-0.096-1.387-0.258-2.043
	c1.02-0.34,2.14-0.527,3.281-0.527c1.043,0,2.072,0.158,3.025,0.443c-0.178,0.682-0.281,1.391-0.281,2.127
	c0,4.691,3.816,8.508,8.506,8.508c4.691,0,8.508-3.816,8.508-8.508C289.635,26.85,285.818,23.033,281.127,23.033z M281.127,38.797
	c-4,0-7.256-3.256-7.256-7.258s3.256-7.256,7.256-7.256c4.002,0,7.258,3.254,7.258,7.256S285.129,38.797,281.127,38.797z
	 M258.347,38.797c-4.001,0-7.257-3.256-7.257-7.258s3.256-7.256,7.257-7.256s7.256,3.254,7.256,7.256S262.348,38.797,258.347,38.797
	z"/>
<g>
	<path fill="#108C9E" d="M328.528,30.882l-10.154-10.359h2.104c0.191,0,0.335,0.027,0.426,0.09c0.091,0.061,0.167,0.129,0.239,0.211
		l8.944,9.322c0.043-0.078,0.086-0.158,0.137-0.232c0.05-0.074,0.107-0.152,0.177-0.234l8.634-8.842
		c0.084-0.08,0.175-0.152,0.271-0.217c0.098-0.064,0.215-0.098,0.354-0.098h2.041l-10.176,10.285l10.592,10.994h-2.104
		c-0.193,0-0.347-0.043-0.456-0.129c-0.112-0.084-0.203-0.168-0.271-0.246l-9.279-9.807c-0.058,0.15-0.153,0.295-0.292,0.438
		l-9.112,9.369c-0.098,0.088-0.21,0.174-0.334,0.256c-0.125,0.08-0.271,0.119-0.436,0.119h-1.936L328.528,30.882z"/>
</g>
<g>
	<g>
		<g>
			<g>
				<circle fill="none" stroke="#108C9E" stroke-miterlimit="10" cx="36.305" cy="22.303" r="0.724"/>
				<path fill="none" stroke="#108C9E" stroke-miterlimit="10" d="M27.453,19.293l-17.229,17.23l11.859,11.859l17.227-17.229V19.293
					H27.453z M37.277,23.273c-0.537,0.537-1.408,0.537-1.943,0c-0.537-0.535-0.537-1.406,0-1.941c0.535-0.537,1.406-0.537,1.943,0
					C37.814,21.867,37.814,22.738,37.277,23.273z"/>
			</g>
			<path fill="none" stroke="#108C9E" stroke-miterlimit="10" d="M36.305,22.305c0,0,2.314,2.934,5.244,2.047
				c2.934-0.885,1.5-7.771,7.906-10.086"/>
			<path fill="none" stroke="#108C9E" stroke-miterlimit="10" d="M35.24,19.293c0,0-0.27-3.58,3.387-3.707
				c3.654-0.131,7.645,5.186,10.277,3.32"/>
		</g>
	</g>
</g>
<g>
	<g>
		<g>
			
				<circle fill-rule="evenodd" clip-rule="evenodd" fill="none" stroke="#108C9E" stroke-miterlimit="10" cx="150.435" cy="30.324" r="4.612"/>
			
				<circle fill-rule="evenodd" clip-rule="evenodd" fill="none" stroke="#108C9E" stroke-miterlimit="10" cx="135.472" cy="30.324" r="4.612"/>
			
				<circle fill-rule="evenodd" clip-rule="evenodd" fill="none" stroke="#108C9E" stroke-miterlimit="10" cx="165.398" cy="30.324" r="4.613"/>
		</g>
	</g>
</g>
<path fill="#108C9E" d="M98.231,19.395l-5.268-2.535L78.572,35.387l-2.816,12.947L87.602,42.4l14.381-18.517L98.231,19.395z
	 M89.69,22.419l4.136,1.984L83.632,37.559l-4.135-2.016L89.69,22.419z M80.099,45.404l-2.577-2.006l1.58-7.273l4.489,2.192
	l3.159,3.762L80.099,45.404z M87.217,41.56l-2.951-3.523l10.193-13.134l2.961,3.502L87.217,41.56z M98.034,27.635l-3.231-3.824
	l-4.5-2.192l0.904-1.163l4.51,2.192l3.221,3.813L98.034,27.635z M96.32,21.868l-4.5-2.192l1.091-1.403l4.5,2.183l3.221,3.813
	l-1.081,1.413L96.32,21.868z"/>
<g>
</g>
<path fill="none" stroke="#108C9E" stroke-miterlimit="10" d="M208.31,18.97c-1.813,0-3.297,1.486-3.297,3.296h-3.298
	c-1.812,0-3.293,1.484-3.293,3.298h23.074c0-1.813-1.484-3.298-3.295-3.298h-3.299c0-1.81-1.482-3.296-3.295-3.296H208.31z
	 M201.715,28.859v15.867c0,0.363,0.256,0.62,0.621,0.62h15.244c0.365,0,0.623-0.254,0.623-0.62V28.859h-3.297v11.54
	c0,0.924-0.725,1.648-1.65,1.648c-0.92,0-1.646-0.725-1.646-1.648v-11.54h-3.297v11.54c0,0.924-0.725,1.648-1.648,1.648
	c-0.922,0-1.646-0.725-1.646-1.648v-11.54h-3.297H201.715z"/>
</svg>
