<?xml version="1.0" encoding="utf-8"?>
<!-- Generator: Adobe Illustrator 16.0.4, SVG Export Plug-In . SVG Version: 6.00 Build 0)  -->
<!DOCTYPE svg PUBLIC "-//W3C//DTD SVG 1.1//EN" "http://www.w3.org/Graphics/SVG/1.1/DTD/svg11.dtd">
<svg version="1.1" id="Layer_1" xmlns="http://www.w3.org/2000/svg" xmlns:xlink="http://www.w3.org/1999/xlink" x="0px" y="0px"
	 width="45px" height="90px" viewBox="0 0 45 90" enable-background="new 0 0 45 90" xml:space="preserve">
<polygon fill="#FFFFFF" stroke="#108C9E" stroke-miterlimit="10" points="25.319,25.434 25.319,25.433 25.318,25.319 30.72,25.318 
	33.48,25.262 33.481,19.747 33.476,19.742 30.72,19.68 25.433,19.68 25.433,19.68 25.318,19.68 25.319,14.278 25.262,11.52 
	19.748,11.519 19.743,11.523 19.681,14.28 19.681,19.566 19.681,19.566 19.681,19.681 14.278,19.682 11.521,19.738 11.519,25.253 
	11.522,25.258 14.28,25.32 19.567,25.318 19.569,25.321 19.681,25.32 19.681,30.721 19.737,33.48 25.253,33.481 25.257,33.477 
	25.321,30.72 "/>
<polygon fill="#108C9E" stroke="#FFFFFF" stroke-miterlimit="10" points="25.319,70.434 25.319,70.433 25.318,70.319 30.72,70.318 
	33.48,70.262 33.481,64.747 33.476,64.742 30.72,64.68 25.433,64.68 25.433,64.68 25.318,64.68 25.319,59.278 25.262,56.52 
	19.748,56.519 19.743,56.523 19.681,59.28 19.681,64.566 19.681,64.566 19.681,64.681 14.278,64.682 11.521,64.738 11.519,70.253 
	11.522,70.258 14.28,70.32 19.567,70.318 19.569,70.321 19.681,70.32 19.681,75.721 19.737,78.48 25.253,78.481 25.257,78.477 
	25.321,75.72 "/>
</svg>
