<?xml version="1.0" encoding="utf-8"?>
<!-- Generator: Adobe Illustrator 15.1.0, SVG Export Plug-In . SVG Version: 6.00 Build 0)  -->
<!DOCTYPE svg PUBLIC "-//W3C//DTD SVG 1.1//EN" "http://www.w3.org/Graphics/SVG/1.1/DTD/svg11.dtd">
<svg version="1.1" id="Layer_1" xmlns="http://www.w3.org/2000/svg" xmlns:xlink="http://www.w3.org/1999/xlink" x="0px" y="0px"
	 width="25px" height="25px" viewBox="0 0 30 30" enable-background="new 0 0 30 30" xml:space="preserve">
<path fill="none" stroke="#343838" stroke-miterlimit="10" d="M13.82,5.572c-1.296,0-2.356,1.062-2.356,2.355H9.106
	c-1.296,0-2.354,1.062-2.354,2.358h16.497c0-1.296-1.062-2.358-2.357-2.358h-2.356c0-1.293-1.061-2.355-2.356-2.355H13.82z
	 M9.106,12.641v11.343c0,0.26,0.183,0.444,0.444,0.444h10.898c0.261,0,0.443-0.182,0.443-0.444V12.641h-2.354v8.25
	c0,0.66-0.52,1.178-1.181,1.178c-0.657,0-1.178-0.518-1.178-1.178v-8.25h-2.357v8.25c0,0.66-0.517,1.178-1.177,1.178
	s-1.177-0.518-1.177-1.178v-8.25H9.111H9.106z"/>
</svg>
