<?xml version="1.0" encoding="utf-8"?>
<!-- Generator: Adobe Illustrator 15.1.0, SVG Export Plug-In . SVG Version: 6.00 Build 0)  -->
<!DOCTYPE svg PUBLIC "-//W3C//DTD SVG 1.1//EN" "http://www.w3.org/Graphics/SVG/1.1/DTD/svg11.dtd">
<svg version="1.1" id="Layer_1" xmlns="http://www.w3.org/2000/svg" xmlns:xlink="http://www.w3.org/1999/xlink" x="0px" y="0px"
	 width="35px" height="35px" viewBox="0 0 46 46" enable-background="new 0 0 46 46" xml:space="preserve">
<g>
	<path id="Twitter__x28_alt_x29__7_" fill="none" stroke="#57C9E7" stroke-miterlimit="10" d="M35.709,21.746
		c1.842-0.155,3.099-0.995,3.578-2.13c-0.663,0.41-2.733,0.854-3.877,0.431c-0.053-0.269-0.117-0.525-0.178-0.755
		c-0.857-3.151-3.766-5.696-6.839-5.469c-0.042,0.004,0.007-0.041,0.075-0.067c0.187-0.072,0.375-0.139,0.559-0.203
		c0.344-0.121,2.363-0.447,2.045-1.161c-0.271-0.623-2.263,0.331-2.729,0.474c0.611-0.227,1.158-0.486,1.268-1.183
		c-0.939,0.128-1.857,0.567-2.57,1.211c0.256-0.277,0.453-0.611,0.493-0.974c-2.501,1.597-3.959,4.821-5.144,7.944
		c-0.928-0.902-1.75-1.611-2.486-2.003c-2.073-1.108-4.547-2.27-8.432-3.714c-0.119,1.291,0.633,2.997,2.811,4.134
		c-0.473-0.064-1.335,0.078-2.023,0.246c0.282,1.47,1.199,2.686,3.681,3.271c-1.136,0.074-1.721,0.33-2.253,0.889
		c0.518,1.022,1.775,2.231,4.047,1.981c-2.521,1.089-1.025,3.101,1.023,2.801c-3.502,3.614-9.02,3.35-12.188,0.325
		c8.275,11.273,26.26,6.667,28.939-4.194c2.01,0.021,3.191-0.692,3.92-1.479C38.274,22.317,36.598,22.113,35.709,21.746z"/>
</g>
</svg>
